<?xml version="1.0" encoding="UTF-8" standalone="no"?>
<svg
   width="1920"
   height="1080"
   viewBox="0 0 507.99999 285.75001"
   version="1.1"
   id="svg8"
   inkscape:version="1.1.1 (3bf5ae0d25, 2021-09-20)"
   sodipodi:docname="debxp-2022.svg"
   xmlns:inkscape="http://www.inkscape.org/namespaces/inkscape"
   xmlns:sodipodi="http://sodipodi.sourceforge.net/DTD/sodipodi-0.dtd"
   xmlns="http://www.w3.org/2000/svg"
   xmlns:svg="http://www.w3.org/2000/svg"
   xmlns:rdf="http://www.w3.org/1999/02/22-rdf-syntax-ns#"
   xmlns:cc="http://creativecommons.org/ns#"
   xmlns:dc="http://purl.org/dc/elements/1.1/">
  <defs
     id="defs2">
    <linearGradient
       id="SVGID_1_-9-4"
       gradientUnits="userSpaceOnUse"
       x1="-1664.0215"
       y1="-3441.8408"
       x2="-1644.5204"
       y2="-3444.8438"
       gradientTransform="matrix(0.2376,-0.9714,-0.9714,-0.2376,-1794.35,-1897.84)">
      <stop
         offset="0"
         style="stop-color:#F7EC30"
         id="stop28-2-8" />
      <stop
         offset="1"
         style="stop-color:#FAAE40"
         id="stop30-00-1" />
    </linearGradient>
    <linearGradient
       id="SVGID_2_-0-8"
       gradientUnits="userSpaceOnUse"
       x1="-925.97803"
       y1="-8201.6367"
       x2="-905.17151"
       y2="-8204.8408"
       gradientTransform="matrix(0.8559,-0.5171,-0.5171,-0.8559,-2252.52,-6984.25)">
      <stop
         offset="0"
         style="stop-color:#F7EC30"
         id="stop35-87-9" />
      <stop
         offset="1"
         style="stop-color:#FAAE40"
         id="stop37-51-3" />
    </linearGradient>
    <linearGradient
       id="SVGID_3_-4-8"
       gradientUnits="userSpaceOnUse"
       x1="-66.996101"
       y1="-10286.06"
       x2="-42.5634"
       y2="-10289.822"
       gradientTransform="matrix(0.9997,0.0244,0.0244,-0.9997,1562.12,-9766.4)">
      <stop
         offset="0"
         style="stop-color:#F7EC30"
         id="stop42-5-0" />
      <stop
         offset="1"
         style="stop-color:#FAAE40"
         id="stop44-04-2" />
    </linearGradient>
    <linearGradient
       id="SVGID_4_-03-0"
       gradientUnits="userSpaceOnUse"
       x1="1313.8677"
       y1="-10460.59"
       x2="1338.9114"
       y2="-10464.446"
       gradientTransform="matrix(0.802,0.5973,0.5973,-0.802,6476.96,-8626.83)">
      <stop
         offset="0"
         style="stop-color:#F7EC30"
         id="stop49-7-5" />
      <stop
         offset="1"
         style="stop-color:#FAAE40"
         id="stop51-7-1" />
    </linearGradient>
    <linearGradient
       id="SVGID_5_-8-0"
       gradientUnits="userSpaceOnUse"
       x1="-1594.7344"
       y1="273.75201"
       x2="-1577.8234"
       y2="271.1478"
       gradientTransform="matrix(-0.3327,-0.943,-0.943,0.3327,859.108,-1024.23)">
      <stop
         offset="0"
         style="stop-color:#F7EC30"
         id="stop56-7-8" />
      <stop
         offset="1"
         style="stop-color:#FAAE40"
         id="stop58-7-5" />
    </linearGradient>
    <linearGradient
       id="SVGID_6_-431-6"
       gradientUnits="userSpaceOnUse"
       x1="-1839.7549"
       y1="2328.082"
       x2="-1826.1986"
       y2="2325.9944"
       gradientTransform="matrix(-0.6493,-0.7605,-0.7605,0.6493,1703.57,-2306.63)">
      <stop
         offset="0"
         style="stop-color:#F7EC30"
         id="stop63-30-4" />
      <stop
         offset="1"
         style="stop-color:#FAAE40"
         id="stop65-7-6" />
    </linearGradient>
    <linearGradient
       id="SVGID_7_-1-5"
       gradientUnits="userSpaceOnUse"
       x1="-776.59668"
       y1="3306.3516"
       x2="-765.99219"
       y2="3304.7185"
       gradientTransform="matrix(-0.9803,-0.1975,-0.1975,0.9803,1031.18,-2761.68)">
      <stop
         offset="0"
         style="stop-color:#F7EC30"
         id="stop70-78-8" />
      <stop
         offset="1"
         style="stop-color:#FAAE40"
         id="stop72-6-6" />
    </linearGradient>
    <linearGradient
       id="SVGID_8_-1-4"
       gradientUnits="userSpaceOnUse"
       x1="1344.7505"
       y1="512.69678"
       x2="1344.7505"
       y2="598.70697">
      <stop
         offset="0"
         style="stop-color:#F7EC30"
         id="stop79-0-7" />
      <stop
         offset="1"
         style="stop-color:#FAAE40"
         id="stop81-8-7" />
    </linearGradient>
    <linearGradient
       id="SVGID_9_-3-6"
       gradientUnits="userSpaceOnUse"
       x1="1384.2378"
       y1="512.69678"
       x2="1384.2378"
       y2="598.70697">
      <stop
         offset="0"
         style="stop-color:#F7EC30"
         id="stop86-0-9" />
      <stop
         offset="1"
         style="stop-color:#FAAE40"
         id="stop88-0-2" />
    </linearGradient>
    <linearGradient
       id="SVGID_10_-2-0"
       gradientUnits="userSpaceOnUse"
       x1="1450.354"
       y1="512.69678"
       x2="1450.354"
       y2="598.70721">
      <stop
         offset="0"
         style="stop-color:#F7EC30"
         id="stop93-9-5" />
      <stop
         offset="1"
         style="stop-color:#FAAE40"
         id="stop95-6-9" />
    </linearGradient>
    <linearGradient
       id="SVGID_11_-5-9"
       gradientUnits="userSpaceOnUse"
       x1="1492.2622"
       y1="512.69678"
       x2="1492.2622"
       y2="598.70697">
      <stop
         offset="0"
         style="stop-color:#F7EC30"
         id="stop100-4-2" />
      <stop
         offset="1"
         style="stop-color:#FAAE40"
         id="stop102-3-5" />
    </linearGradient>
    <linearGradient
       id="SVGID_12_-7-3"
       gradientUnits="userSpaceOnUse"
       x1="1537.4175"
       y1="512.69678"
       x2="1537.4175"
       y2="598.70728">
      <stop
         offset="0"
         style="stop-color:#F7EC30"
         id="stop107-05-0" />
      <stop
         offset="1"
         style="stop-color:#FAAE40"
         id="stop109-0-3" />
    </linearGradient>
    <linearGradient
       id="SVGID_13_-7-7"
       gradientUnits="userSpaceOnUse"
       x1="1573.0542"
       y1="512.69678"
       x2="1573.0542"
       y2="598.70721">
      <stop
         offset="0"
         style="stop-color:#F7EC30"
         id="stop114-2-7" />
      <stop
         offset="1"
         style="stop-color:#FAAE40"
         id="stop116-8-6" />
    </linearGradient>
    <linearGradient
       id="SVGID_14_-42-8"
       gradientUnits="userSpaceOnUse"
       x1="1604.2378"
       y1="512.69678"
       x2="1604.2378"
       y2="598.70697">
      <stop
         offset="0"
         style="stop-color:#F7EC30"
         id="stop121-57-8" />
      <stop
         offset="1"
         style="stop-color:#FAAE40"
         id="stop123-3-8" />
    </linearGradient>
    <linearGradient
       id="SVGID_15_-89-8"
       gradientUnits="userSpaceOnUse"
       x1="1421.5991"
       y1="512.69678"
       x2="1421.5991"
       y2="598.70709">
      <stop
         offset="0"
         style="stop-color:#F7EC30"
         id="stop130-1-6" />
      <stop
         offset="1"
         style="stop-color:#FAAE40"
         id="stop132-19-0" />
    </linearGradient>
    <linearGradient
       id="SVGID_16_-9-8"
       gradientUnits="userSpaceOnUse"
       x1="1427.314"
       y1="537.75677"
       x2="1435.064"
       y2="548.25677">
      <stop
         offset="0"
         style="stop-color:#F69220"
         id="stop137-7-96" />
      <stop
         offset="0.4724"
         style="stop-color:#F05A29"
         id="stop139-09-4" />
      <stop
         offset="0.4785"
         style="stop-color:#EE4037"
         id="stop141-66-3" />
      <stop
         offset="1"
         style="stop-color:#F05A29"
         id="stop143-2-3" />
    </linearGradient>
    <linearGradient
       id="SVGID_17_-88-8"
       gradientUnits="userSpaceOnUse"
       x1="1422.7798"
       y1="512.69678"
       x2="1422.7798"
       y2="598.70752">
      <stop
         offset="0"
         style="stop-color:#F7EC30"
         id="stop148-16-8" />
      <stop
         offset="1"
         style="stop-color:#FAAE40"
         id="stop150-57-3" />
    </linearGradient>
    <linearGradient
       id="SVGID_18_-93-9"
       gradientUnits="userSpaceOnUse"
       x1="1386.8247"
       y1="595.18701"
       x2="1386.8247"
       y2="661.90637">
      <stop
         offset="0"
         style="stop-color:#F7EC30"
         id="stop157-74-7" />
      <stop
         offset="1"
         style="stop-color:#FAAE40"
         id="stop159-5-5" />
    </linearGradient>
    <linearGradient
       id="SVGID_19_-5-4"
       gradientUnits="userSpaceOnUse"
       x1="1418.7251"
       y1="595.18701"
       x2="1418.7251"
       y2="661.90637">
      <stop
         offset="0"
         style="stop-color:#F7EC30"
         id="stop164-7-1" />
      <stop
         offset="1"
         style="stop-color:#FAAE40"
         id="stop166-49-8" />
    </linearGradient>
    <linearGradient
       id="SVGID_20_-1-7"
       gradientUnits="userSpaceOnUse"
       x1="1449.9087"
       y1="595.18701"
       x2="1449.9087"
       y2="661.90637">
      <stop
         offset="0"
         style="stop-color:#F7EC30"
         id="stop171-99-8" />
      <stop
         offset="1"
         style="stop-color:#FAAE40"
         id="stop173-49-5" />
    </linearGradient>
    <linearGradient
       id="SVGID_21_-0-9"
       gradientUnits="userSpaceOnUse"
       x1="1486.3628"
       y1="595.18701"
       x2="1486.3628"
       y2="661.90637">
      <stop
         offset="0"
         style="stop-color:#F7EC30"
         id="stop178-5-6" />
      <stop
         offset="1"
         style="stop-color:#FAAE40"
         id="stop180-1-2" />
    </linearGradient>
    <linearGradient
       id="SVGID_22_-1-3"
       gradientUnits="userSpaceOnUse"
       x1="1564.644"
       y1="595.18701"
       x2="1564.644"
       y2="661.90637">
      <stop
         offset="0"
         style="stop-color:#F7EC30"
         id="stop185-7-1" />
      <stop
         offset="1"
         style="stop-color:#FAAE40"
         id="stop187-82-7" />
    </linearGradient>
    <linearGradient
       id="SVGID_23_-8-4"
       gradientUnits="userSpaceOnUse"
       x1="1613.4438"
       y1="595.18701"
       x2="1613.4438"
       y2="661.90619">
      <stop
         offset="0"
         style="stop-color:#F7EC30"
         id="stop192-6-4" />
      <stop
         offset="1"
         style="stop-color:#FAAE40"
         id="stop194-8-7" />
    </linearGradient>
    <linearGradient
       id="SVGID_24_-05-3"
       gradientUnits="userSpaceOnUse"
       x1="1686.064"
       y1="595.18701"
       x2="1686.064"
       y2="661.90637">
      <stop
         offset="0"
         style="stop-color:#F7EC30"
         id="stop199-84-0" />
      <stop
         offset="1"
         style="stop-color:#FAAE40"
         id="stop201-15-4" />
    </linearGradient>
    <linearGradient
       id="SVGID_25_-1-4"
       gradientUnits="userSpaceOnUse"
       x1="1733.1841"
       y1="595.18701"
       x2="1733.1841"
       y2="661.90619">
      <stop
         offset="0"
         style="stop-color:#F7EC30"
         id="stop206-1-8" />
      <stop
         offset="1"
         style="stop-color:#FAAE40"
         id="stop208-0-1" />
    </linearGradient>
    <linearGradient
       id="SVGID_26_-95-1"
       gradientUnits="userSpaceOnUse"
       x1="1773.27"
       y1="595.18701"
       x2="1773.27"
       y2="661.90662">
      <stop
         offset="0"
         style="stop-color:#F7EC30"
         id="stop213-6-5" />
      <stop
         offset="1"
         style="stop-color:#FAAE40"
         id="stop215-6-9" />
    </linearGradient>
    <linearGradient
       id="SVGID_27_-4-8"
       gradientUnits="userSpaceOnUse"
       x1="1526.7856"
       y1="595.18701"
       x2="1526.7856"
       y2="661.90649">
      <stop
         offset="0"
         style="stop-color:#F7EC30"
         id="stop224-2-5" />
      <stop
         offset="1"
         style="stop-color:#FAAE40"
         id="stop226-5-6" />
    </linearGradient>
    <linearGradient
       id="SVGID_28_-516-0"
       gradientUnits="userSpaceOnUse"
       x1="1150.4614"
       y1="634.6167"
       x2="1270.4927"
       y2="634.6167">
      <stop
         offset="0"
         style="stop-color:#F7EC30"
         id="stop239-0-9" />
      <stop
         offset="1"
         style="stop-color:#FAAE40"
         id="stop241-09-6" />
    </linearGradient>
    <linearGradient
       id="SVGID_29_-73-0"
       gradientUnits="userSpaceOnUse"
       x1="1150.4614"
       y1="585.56201"
       x2="1270.4922"
       y2="585.56201">
      <stop
         offset="0"
         style="stop-color:#F7EC30"
         id="stop246-0-8" />
      <stop
         offset="1"
         style="stop-color:#FAAE40"
         id="stop248-62-8" />
    </linearGradient>
    <linearGradient
       id="SVGID_30_-4-2"
       gradientUnits="userSpaceOnUse"
       x1="1150.4614"
       y1="594.37207"
       x2="1270.4927"
       y2="594.37207">
      <stop
         offset="0"
         style="stop-color:#F7EC30"
         id="stop253-5-9" />
      <stop
         offset="1"
         style="stop-color:#FAAE40"
         id="stop255-02-3" />
    </linearGradient>
    <linearGradient
       id="SVGID_31_-75-9"
       gradientUnits="userSpaceOnUse"
       x1="458.2778"
       y1="621.23633"
       x2="654.18433"
       y2="621.23633"
       gradientTransform="matrix(-1,0,0,1,1789.39,0)">
      <stop
         offset="0"
         style="stop-color:#8BC541"
         id="stop262-23-4" />
      <stop
         offset="1"
         style="stop-color:#39B24A"
         id="stop264-90-8" />
    </linearGradient>
    <linearGradient
       id="SVGID_32_-70-6"
       gradientUnits="userSpaceOnUse"
       x1="462.67139"
       y1="637.58978"
       x2="647.41541"
       y2="637.58978"
       gradientTransform="matrix(-1,0,0,1,1790.99,0)">
      <stop
         offset="0"
         style="stop-color:#FFFFFF"
         id="stop271-06-5" />
      <stop
         offset="1"
         style="stop-color:#FFFFFF;stop-opacity:0"
         id="stop273-7-6" />
    </linearGradient>
    <clipPath
       id="clipPath1714"
       clipPathUnits="userSpaceOnUse">
      <rect
         style="opacity:1;vector-effect:none;fill:#434c5e;fill-opacity:1;fill-rule:evenodd;stroke:none;stroke-width:13.1986;stroke-linecap:round;stroke-linejoin:bevel;stroke-miterlimit:4;stroke-dasharray:none;stroke-dashoffset:0;stroke-opacity:1"
         id="rect1716"
         width="508"
         height="285.75"
         x="-749.60175"
         y="513.96106" />
    </clipPath>
    <clipPath
       id="clipPath1714-7"
       clipPathUnits="userSpaceOnUse">
      <rect
         style="opacity:1;vector-effect:none;fill:#434c5e;fill-opacity:1;fill-rule:evenodd;stroke:none;stroke-width:13.1986;stroke-linecap:round;stroke-linejoin:bevel;stroke-miterlimit:4;stroke-dasharray:none;stroke-dashoffset:0;stroke-opacity:1"
         id="rect1716-9"
         width="508"
         height="285.75"
         x="-749.60175"
         y="513.96106" />
    </clipPath>
    <filter
       inkscape:collect="always"
       style="color-interpolation-filters:sRGB"
       id="filter215716"
       x="-0.052361016"
       y="-0.036941434"
       width="1.104722"
       height="1.0738829">
      <feGaussianBlur
         inkscape:collect="always"
         stdDeviation="4.2797709"
         id="feGaussianBlur215718" />
    </filter>
    <filter
       inkscape:collect="always"
       style="color-interpolation-filters:sRGB"
       id="filter34300"
       x="-0.048040766"
       y="-0.047959308"
       width="1.0960815"
       height="1.0959186">
      <feGaussianBlur
         inkscape:collect="always"
         stdDeviation="2.5326299"
         id="feGaussianBlur34302" />
    </filter>
    <linearGradient
       id="dff037aa-d578-4bab-81e7-399360663117-17"
       x1="597.75"
       y1="725.44"
       x2="597.75"
       y2="347.69"
       gradientUnits="userSpaceOnUse">
      <stop
         offset="0"
         stop-color="gray"
         stop-opacity="0.25"
         id="stop51453" />
      <stop
         offset="0.54"
         stop-color="gray"
         stop-opacity="0.12"
         id="stop51455" />
      <stop
         offset="1"
         stop-color="gray"
         stop-opacity="0.1"
         id="stop51457" />
    </linearGradient>
  </defs>
  <sodipodi:namedview
     id="base"
     pagecolor="#ffffff"
     bordercolor="#666666"
     borderopacity="1.0"
     inkscape:pageopacity="0.0"
     inkscape:pageshadow="2"
     inkscape:zoom="0.45254834"
     inkscape:cx="1016.466"
     inkscape:cy="-646.33979"
     inkscape:document-units="px"
     inkscape:current-layer="layer1"
     inkscape:document-rotation="0"
     showgrid="false"
     units="px"
     inkscape:pagecheckerboard="0"
     showguides="false"
     inkscape:guide-bbox="true">
    <sodipodi:guide
       position="178.65809,158.74217"
       orientation="0,-1"
       id="guide140008" />
    <sodipodi:guide
       position="194.12436,147.90986"
       orientation="0,-1"
       id="guide140010" />
  </sodipodi:namedview>
  <metadata
     id="metadata5">
    <rdf:RDF>
      <cc:Work
         rdf:about="">
        <dc:format>image/svg+xml</dc:format>
        <dc:type
           rdf:resource="http://purl.org/dc/dcmitype/StillImage" />
        <cc:license
           rdf:resource="http://creativecommons.org/licenses/by-sa/4.0/" />
        <dc:creator>
          <cc:Agent>
            <dc:title>Blau Araujo</dc:title>
          </cc:Agent>
        </dc:creator>
      </cc:Work>
      <cc:License
         rdf:about="http://creativecommons.org/licenses/by-sa/4.0/">
        <cc:permits
           rdf:resource="http://creativecommons.org/ns#Reproduction" />
        <cc:permits
           rdf:resource="http://creativecommons.org/ns#Distribution" />
        <cc:requires
           rdf:resource="http://creativecommons.org/ns#Notice" />
        <cc:requires
           rdf:resource="http://creativecommons.org/ns#Attribution" />
        <cc:permits
           rdf:resource="http://creativecommons.org/ns#DerivativeWorks" />
        <cc:requires
           rdf:resource="http://creativecommons.org/ns#ShareAlike" />
      </cc:License>
    </rdf:RDF>
  </metadata>
  <g
     inkscape:label="Layer 1"
     inkscape:groupmode="layer"
     id="layer1"
     transform="translate(166.05424,-14.075405)">
    <g
       id="g139468"
       transform="translate(23.782213,25.210212)" />
    <g
       id="g139474"
       transform="rotate(-90,39.987979,98.558616)" />
    <g
       id="g139566"
       transform="rotate(-90,63.051248,106.31018)" />
    <g
       id="g139572"
       transform="translate(39.093915,25.210212)" />
    <g
       id="g139822"
       transform="matrix(0,-1,1.0073699,0,-59.694713,154.16743)"
       style="stroke-width:0.996335" />
    <g
       id="g220858">
      <rect
         style="opacity:1;vector-effect:none;fill:#303851;fill-opacity:1;fill-rule:evenodd;stroke:none;stroke-width:10.5833;stroke-linecap:round;stroke-linejoin:bevel;stroke-miterlimit:4;stroke-dasharray:none;stroke-dashoffset:0;stroke-opacity:1"
         id="rect42529"
         width="508"
         height="285.75"
         x="-166.05424"
         y="14.075405"
         inkscape:export-filename="/home/blau/imgs/thumbs/capa-twitter.png"
         inkscape:export-xdpi="96"
         inkscape:export-ydpi="96" />
      <g
         id="g164912"
         transform="translate(25.65379,-0.04371307)">
        <text
           xml:space="preserve"
           style="font-size:9.89484px;line-height:4.25;font-family:'Open Sans';-inkscape-font-specification:'Open Sans';text-align:center;letter-spacing:0px;word-spacing:0px;text-anchor:middle;fill:#f5655c;fill-opacity:1;stroke-width:0.264584"
           x="108.48629"
           y="182.76463"
           id="text121435"><tspan
             sodipodi:role="line"
             id="tspan121433"
             style="fill:#f5655c;fill-opacity:1;stroke-width:0.264584"
             x="108.48629"
             y="182.76463">BLAU ARAUJO</tspan></text>
        <text
           xml:space="preserve"
           style="font-size:14.8104px;line-height:4.25;font-family:'Open Sans';-inkscape-font-specification:'Open Sans';text-align:center;letter-spacing:0px;word-spacing:0px;text-anchor:middle;fill:#ffebcf;fill-opacity:1;stroke-width:0.264584"
           x="99.163437"
           y="172.40623"
           id="text126764"><tspan
             sodipodi:role="line"
             id="tspan126762"
             style="fill:#ffebcf;fill-opacity:1;stroke-width:0.264584"
             x="99.163437"
             y="172.40623">DEBXP</tspan></text>
      </g>
      <g
         id="g164920"
         transform="translate(25.608503,-1.0647323e-4)">
        <path
           id="rect136174"
           style="vector-effect:none;fill:#5a858b;fill-opacity:1;fill-rule:evenodd;stroke:none;stroke-width:39.9999;stroke-linecap:round;stroke-linejoin:bevel;stroke-miterlimit:4;stroke-dasharray:none;stroke-dashoffset:0;stroke-opacity:1"
           d="m 765.12891,400.97656 v 21.83008 94.28906 58.2168 21.83008 H 902.83984 V 575.3125 H 786.95898 V 481.02148 422.80664 H 881.25 939.46484 v 0.34375 93.94531 0.34571 h -0.34375 -94.29101 V 481.8457 h 58.00976 V 460.01562 H 844.83008 823 v 21.83008 35.59571 21.83007 h 116.12109 0.34375 21.83008 V 517.44141 517.0957 423.15039 400.97656 H 881.25 786.95898 Z"
           transform="matrix(0.26458334,0,0,0.26458334,-166.05424,14.075405)" />
        <g
           id="g139918"
           transform="translate(23.936776,25.210212)">
          <g
             id="g139908"
             transform="rotate(-90,43.81663,126.47861)">
            <rect
               style="opacity:1;vector-effect:none;fill:#496071;fill-opacity:1;fill-rule:evenodd;stroke:none;stroke-width:10.5833;stroke-linecap:round;stroke-linejoin:bevel;stroke-miterlimit:4;stroke-dasharray:none;stroke-dashoffset:0;stroke-opacity:1"
               id="rect139906"
               width="20.969824"
               height="5.7758336"
               x="-131.54736"
               y="12.603851"
               transform="rotate(-90)" />
          </g>
          <g
             id="g139912"
             transform="matrix(0,-1,0.53924549,0,-26.881945,181.12754)"
             style="stroke-width:1.36178">
            <rect
               style="opacity:1;vector-effect:none;fill:#496071;fill-opacity:1;fill-rule:evenodd;stroke:none;stroke-width:14.4121;stroke-linecap:round;stroke-linejoin:bevel;stroke-miterlimit:4;stroke-dasharray:none;stroke-dashoffset:0;stroke-opacity:1"
               id="rect139910"
               width="20.969824"
               height="5.7758336"
               x="-131.54736"
               y="12.603851"
               transform="rotate(-90)" />
          </g>
        </g>
      </g>
    </g>
    <g
       id="g220097"
       transform="matrix(0.46815583,0,0,0.46815583,192.37098,9.1947817)"
       style="stroke-width:2.13604">
      <rect
         style="opacity:1;vector-effect:none;fill:#252b41;fill-opacity:1;fill-rule:evenodd;stroke:none;stroke-width:22.6064;stroke-linecap:round;stroke-linejoin:bevel;stroke-miterlimit:4;stroke-dasharray:none;stroke-dashoffset:0;stroke-opacity:1"
         id="rect1788"
         width="47.50135"
         height="47.50135"
         x="361.70554"
         y="17.288488" />
      <rect
         style="opacity:1;vector-effect:none;fill:#303851;fill-opacity:1;fill-rule:evenodd;stroke:none;stroke-width:22.6064;stroke-linecap:round;stroke-linejoin:bevel;stroke-miterlimit:4;stroke-dasharray:none;stroke-dashoffset:0;stroke-opacity:1"
         id="rect9335"
         width="47.50135"
         height="47.50135"
         x="361.70554"
         y="64.789833" />
      <rect
         style="opacity:1;vector-effect:none;fill:#474d67;fill-opacity:1;fill-rule:evenodd;stroke:none;stroke-width:22.6064;stroke-linecap:round;stroke-linejoin:bevel;stroke-miterlimit:4;stroke-dasharray:none;stroke-dashoffset:0;stroke-opacity:1"
         id="rect13278"
         width="47.50135"
         height="47.50135"
         x="361.70554"
         y="112.29118" />
      <rect
         style="opacity:1;vector-effect:none;fill:#496071;fill-opacity:1;fill-rule:evenodd;stroke:none;stroke-width:22.6064;stroke-linecap:round;stroke-linejoin:bevel;stroke-miterlimit:4;stroke-dasharray:none;stroke-dashoffset:0;stroke-opacity:1"
         id="rect17338"
         width="47.50135"
         height="47.50135"
         x="361.70554"
         y="159.79253" />
      <rect
         style="opacity:1;vector-effect:none;fill:#f5655c;fill-opacity:1;fill-rule:evenodd;stroke:none;stroke-width:22.6064;stroke-linecap:round;stroke-linejoin:bevel;stroke-miterlimit:4;stroke-dasharray:none;stroke-dashoffset:0;stroke-opacity:1"
         id="rect25844"
         width="47.50135"
         height="47.50135"
         x="361.70554"
         y="254.79523" />
      <rect
         style="opacity:1;vector-effect:none;fill:#ffebcf;fill-opacity:1;fill-rule:evenodd;stroke:none;stroke-width:22.6064;stroke-linecap:round;stroke-linejoin:bevel;stroke-miterlimit:4;stroke-dasharray:none;stroke-dashoffset:0;stroke-opacity:1"
         id="rect38757"
         width="47.50135"
         height="47.50135"
         x="361.70554"
         y="302.29657" />
      <rect
         style="opacity:1;vector-effect:none;fill:#5a858b;fill-opacity:1;fill-rule:evenodd;stroke:none;stroke-width:22.6064;stroke-linecap:round;stroke-linejoin:bevel;stroke-miterlimit:4;stroke-dasharray:none;stroke-dashoffset:0;stroke-opacity:1"
         id="rect157724"
         width="47.50135"
         height="47.50135"
         x="361.70554"
         y="207.29388" />
    </g>
    <g
       id="g221140"
       transform="translate(750.58124,245.79218)">
      <g
         id="g220116"
         transform="matrix(0.84995058,0,0,0.84995058,-259.18583,-25.983283)"
         style="stroke-width:1.17654"
         inkscape:export-filename="/home/blau/imgs/thumbs/debxp-2022-logo.png"
         inkscape:export-xdpi="96"
         inkscape:export-ydpi="96">
        <rect
           style="opacity:1;vector-effect:none;fill:#252b41;fill-opacity:1;fill-rule:evenodd;stroke:none;stroke-width:12.4517;stroke-linecap:round;stroke-linejoin:bevel;stroke-miterlimit:4;stroke-dasharray:none;stroke-dashoffset:0;stroke-opacity:1"
           id="rect220114"
           width="131.42249"
           height="131.42249"
           x="26.791647"
           y="-238.87608"
           rx="0"
           ry="0" />
      </g>
      <path
         id="path220118"
         style="vector-effect:none;fill:#191d2d;fill-opacity:1;fill-rule:evenodd;stroke:none;stroke-width:39.9999;stroke-linecap:round;stroke-linejoin:bevel;stroke-miterlimit:4;stroke-dasharray:none;stroke-dashoffset:0;stroke-opacity:1;filter:url(#filter215716)"
         d="m 879.14062,-846.70312 v 21.83007 94.28907 58.21679 21.83008 h 137.71098 v -21.83008 H 900.9707 v -94.29101 -58.21485 h 94.29102 58.21488 v 0.34375 93.94532 0.3457 h -0.3438 -94.291 v -35.5957 h 58.0098 v -21.83008 h -58.0098 -21.83008 v 21.83008 35.5957 21.83008 h 116.12108 0.3438 21.83 v -21.83008 -0.3457 -93.94532 -22.17382 H 995.26172 900.9707 Z m 58.45508,215.27734 v 21.82812 h 79.2559 v -21.82812 z m 18.25782,40.93945 v 21.83008 h 42.74023 v -21.83008 z"
         transform="matrix(0.26458334,0,0,0.26458334,-439.12008,14.075405)" />
      <g
         id="g220132"
         transform="translate(-242.9002,-330.11534)">
        <path
           id="path220120"
           style="vector-effect:none;fill:#5a858b;fill-opacity:1;fill-rule:evenodd;stroke:none;stroke-width:39.9999;stroke-linecap:round;stroke-linejoin:bevel;stroke-miterlimit:4;stroke-dasharray:none;stroke-dashoffset:0;stroke-opacity:1"
           d="m 765.12891,400.97656 v 21.83008 94.28906 58.2168 21.83008 H 902.83984 V 575.3125 H 786.95898 V 481.02148 422.80664 H 881.25 939.46484 v 0.34375 93.94531 0.34571 h -0.34375 -94.29101 V 481.8457 h 58.00976 V 460.01562 H 844.83008 823 v 21.83008 35.59571 21.83007 h 116.12109 0.34375 21.83008 V 517.44141 517.0957 423.15039 400.97656 H 881.25 786.95898 Z"
           transform="matrix(0.26458334,0,0,0.26458334,-166.05424,14.075405)" />
        <g
           id="g220130"
           transform="translate(23.936776,25.210212)">
          <g
             id="g220124"
             transform="rotate(-90,43.81663,126.47861)">
            <rect
               style="opacity:1;vector-effect:none;fill:#496071;fill-opacity:1;fill-rule:evenodd;stroke:none;stroke-width:10.5833;stroke-linecap:round;stroke-linejoin:bevel;stroke-miterlimit:4;stroke-dasharray:none;stroke-dashoffset:0;stroke-opacity:1"
               id="rect220122"
               width="20.969824"
               height="5.7758336"
               x="-131.54736"
               y="12.603851"
               transform="rotate(-90)" />
          </g>
          <g
             id="g220128"
             transform="matrix(0,-1,0.53924549,0,-26.881945,181.12754)"
             style="stroke-width:1.36178">
            <rect
               style="opacity:1;vector-effect:none;fill:#496071;fill-opacity:1;fill-rule:evenodd;stroke:none;stroke-width:14.4121;stroke-linecap:round;stroke-linejoin:bevel;stroke-miterlimit:4;stroke-dasharray:none;stroke-dashoffset:0;stroke-opacity:1"
               id="rect220126"
               width="20.969824"
               height="5.7758336"
               x="-131.54736"
               y="12.603851"
               transform="rotate(-90)" />
          </g>
        </g>
      </g>
    </g>
    <g
       id="g221048"
       inkscape:export-filename="/home/blau/imgs/thumbs/debxp-2022-marca.png"
       inkscape:export-xdpi="96"
       inkscape:export-ydpi="96"
       transform="translate(642.63065,436.70597)">
      <g
         id="g221005"
         transform="matrix(0.84995058,0,0,0.84995058,-262.93785,-216.89707)"
         style="opacity:0;stroke-width:1.17654"
         inkscape:export-filename="/home/blau/imgs/thumbs/debxp-2022-logo.png"
         inkscape:export-xdpi="96"
         inkscape:export-ydpi="96">
        <rect
           style="opacity:1;vector-effect:none;fill:#252b41;fill-opacity:1;fill-rule:evenodd;stroke:none;stroke-width:12.4517;stroke-linecap:round;stroke-linejoin:bevel;stroke-miterlimit:4;stroke-dasharray:none;stroke-dashoffset:0;stroke-opacity:1"
           id="rect221003"
           width="131.42249"
           height="131.42249"
           x="26.791647"
           y="-238.87608"
           rx="0"
           ry="0" />
      </g>
      <g
         id="g221019"
         transform="translate(-246.65222,-521.02913)">
        <path
           id="path221007"
           style="vector-effect:none;fill:#5a858b;fill-opacity:1;fill-rule:evenodd;stroke:none;stroke-width:39.9999;stroke-linecap:round;stroke-linejoin:bevel;stroke-miterlimit:4;stroke-dasharray:none;stroke-dashoffset:0;stroke-opacity:1"
           d="m 765.12891,400.97656 v 21.83008 94.28906 58.2168 21.83008 H 902.83984 V 575.3125 H 786.95898 V 481.02148 422.80664 H 881.25 939.46484 v 0.34375 93.94531 0.34571 h -0.34375 -94.29101 V 481.8457 h 58.00976 V 460.01562 H 844.83008 823 v 21.83008 35.59571 21.83007 h 116.12109 0.34375 21.83008 V 517.44141 517.0957 423.15039 400.97656 H 881.25 786.95898 Z"
           transform="matrix(0.26458334,0,0,0.26458334,-166.05424,14.075405)" />
        <g
           id="g221017"
           transform="translate(23.936776,25.210212)">
          <g
             id="g221011"
             transform="rotate(-90,43.81663,126.47861)">
            <rect
               style="opacity:1;vector-effect:none;fill:#496071;fill-opacity:1;fill-rule:evenodd;stroke:none;stroke-width:10.5833;stroke-linecap:round;stroke-linejoin:bevel;stroke-miterlimit:4;stroke-dasharray:none;stroke-dashoffset:0;stroke-opacity:1"
               id="rect221009"
               width="20.969824"
               height="5.7758336"
               x="-131.54736"
               y="12.603851"
               transform="rotate(-90)" />
          </g>
          <g
             id="g221015"
             transform="matrix(0,-1,0.53924549,0,-26.881945,181.12754)"
             style="stroke-width:1.36178">
            <rect
               style="opacity:1;vector-effect:none;fill:#496071;fill-opacity:1;fill-rule:evenodd;stroke:none;stroke-width:14.4121;stroke-linecap:round;stroke-linejoin:bevel;stroke-miterlimit:4;stroke-dasharray:none;stroke-dashoffset:0;stroke-opacity:1"
               id="rect221013"
               width="20.969824"
               height="5.7758336"
               x="-131.54736"
               y="12.603851"
               transform="rotate(-90)" />
          </g>
        </g>
      </g>
    </g>
    <g
       id="g52200"
       inkscape:export-filename="/home/blau/videos/git-bare/thumb.png"
       inkscape:export-xdpi="96"
       inkscape:export-ydpi="96">
      <rect
         style="vector-effect:none;fill:#303851;fill-opacity:1;fill-rule:evenodd;stroke:none;stroke-width:10.5833;stroke-linecap:round;stroke-linejoin:bevel;stroke-miterlimit:4;stroke-dasharray:none;stroke-dashoffset:0;stroke-opacity:1"
         id="rect246"
         width="508"
         height="285.75"
         x="-162.13368"
         y="-311.47607"
         inkscape:export-filename="/home/blau/imgs/thumbs/capa-twitter.png"
         inkscape:export-xdpi="96"
         inkscape:export-ydpi="96" />
      <g
         id="g52098"
         transform="translate(0,-5.2916669)">
        <g
           id="g51800"
           transform="translate(0,4.0860665)">
          <g
             id="g51700"
             transform="matrix(0.26458334,0,0,0.26458334,-45.888769,-288.55882)">
            <path
               d="m 1040.82,611.12 q -1.74,3.75 -3.47,7.4 -2.7,5.67 -5.33,11.12 c -0.78,1.61 -1.56,3.19 -2.32,4.77 -8.6,17.57 -16.63,33.11 -23.45,45.89 A 73.21,73.21 0 0 1 942.44,719 l -151.65,1.65 h -1.6 l -13,0.14 -11.12,0.12 -34.1,0.37 h -1.38 l -17.36,0.19 h -0.53 l -107,1.16 -95.51,1 -11.11,0.12 -69,0.75 H 429 l -44.75,0.48 h -0.48 l -141.5,1.53 -42.33,0.46 A 88.07,88.07 0 0 1 173.27,723.15 86.39,86.39 0 0 1 134.18,698.4 C 116,678.37 102.75,655 93.85,629.64 q -1.93,-5.49 -3.6,-11.12 C 59.44,514.37 97,380 164.6,290.08 q 4.25,-5.64 8.64,-11 l 0.07,-0.08 c 20.79,-25.52 44.1,-46.84 68.93,-62 44,-26.91 92.75,-34.49 140.7,-11.9 40.57,19.12 78.45,28.11 115.17,30.55 3.71,0.24 7.42,0.42 11.11,0.53 84.23,2.65 163.17,-27.7 255.87,-47.29 3.69,-0.78 7.39,-1.55 11.12,-2.28 66.13,-13.16 139.49,-20.1 226.73,-5.51 a 189.09,189.09 0 0 1 26.76,6.4 q 5.77,1.86 11.12,4 c 41.64,16.94 64.35,48.24 74,87.46 q 1.37,5.46 2.37,11.11 c 17.11,94.34 -33,228.16 -76.37,321.05 z"
               transform="translate(-79.34,-172.91)"
               fill="#7fa5c1"
               opacity="0.1"
               id="path51464" />
            <g
               opacity="0.1"
               id="g51478">
              <path
                 d="m 242.24,217 v 509.62 l -42.33,0.46 a 88.07,88.07 0 0 1 -26.67,-3.82 V 279 h 0.07 c 20.79,-25.55 44.1,-46.87 68.93,-62 z"
                 transform="translate(-79.34,-172.91)"
                 fill="#7fa5c1"
                 id="path51466" />
              <path
                 d="M 1117.24,290.08 H 164.6 q 4.25,-5.64 8.64,-11 V 279 h 941.63 q 1.37,5.43 2.37,11.08 z"
                 transform="translate(-79.34,-172.91)"
                 fill="#7fa5c1"
                 id="path51468" />
              <path
                 d="m 1040.82,191.51 v 427 h -3.47 q -2.7,5.67 -5.33,11.12 c -0.78,1.61 -1.56,3.19 -2.32,4.77 V 187.47 q 5.77,1.86 11.12,4.04 z"
                 transform="translate(-79.34,-172.91)"
                 fill="#7fa5c1"
                 id="path51470" />
              <path
                 d="m 776.21,186.58 v 534.25 l -11.12,0.12 V 188.86 c 3.69,-0.78 7.39,-1.55 11.12,-2.28 z"
                 transform="translate(-79.34,-172.91)"
                 fill="#7fa5c1"
                 id="path51472" />
              <path
                 d="m 509.22,236.15 v 487.58 l -11.11,0.12 V 235.62 c 3.71,0.24 7.42,0.38 11.11,0.53 z"
                 transform="translate(-79.34,-172.91)"
                 fill="#7fa5c1"
                 id="path51474" />
              <path
                 d="m 1037.35,618.52 q -2.7,5.67 -5.33,11.12 H 93.85 q -1.93,-5.49 -3.6,-11.12 z"
                 transform="translate(-79.34,-172.91)"
                 fill="#7fa5c1"
                 id="path51476" />
            </g>
            <rect
               x="211.60001"
               y="265.82999"
               width="19"
               height="57.66"
               fill="#3f3d56"
               id="rect51480" />
            <rect
               x="722.92999"
               y="262.82999"
               width="19"
               height="61"
               fill="#3f3d56"
               id="rect51482" />
            <polygon
               points="680.93,506.21 682.78,506.19 683.74,506.19 695.45,506.1 697.77,506.07 700.88,506.05 710.63,505.96 726.1,505.83 728.1,505.81 731.58,505.79 732.23,505.79 806.94,505.15 863.1,533.65 863.1,546.65 711.18,548.05 709.56,548.08 651.82,548.61 650.44,548.63 632.89,548.78 632.37,548.78 525.39,549.77 349.78,551.4 349.63,551.4 304.98,551.82 304.5,551.83 106.1,553.65 106.1,538.65 152.75,510.65 246.35,509.87 248.35,509.86 249.01,509.85 251.01,509.82 295.95,509.45 297.96,509.44 298.6,509.43 300.6,509.42 315.01,509.3 315.39,509.29 350.94,508.99 351.23,508.99 628.63,506.65 635.42,506.6 636.1,506.6 641.28,506.55 678.93,506.24 "
               fill="#65617d"
               id="polygon51484" />
            <polygon
               points="680.93,506.21 682.78,506.19 683.74,506.19 695.45,506.1 697.77,506.07 700.88,506.05 710.63,505.96 726.1,505.83 728.1,505.81 731.58,505.79 732.23,505.79 806.94,505.15 863.1,533.65 863.1,546.65 711.18,548.05 709.56,548.08 651.82,548.61 650.44,548.63 632.89,548.78 632.37,548.78 525.39,549.77 349.78,551.4 349.63,551.4 304.98,551.82 304.5,551.83 106.1,553.65 106.1,538.65 152.75,510.65 246.35,509.87 248.35,509.86 249.01,509.85 251.01,509.82 295.95,509.45 297.96,509.44 298.6,509.43 300.6,509.42 315.01,509.3 315.39,509.29 350.94,508.99 351.23,508.99 628.63,506.65 635.42,506.6 636.1,506.6 641.28,506.55 678.93,506.24 "
               opacity="0.2"
               id="polygon51486" />
            <path
               d="m 375.44,656.57 v 24.49 a 6.13,6.13 0 0 1 -3.5,5.54 6,6 0 0 1 -2.5,0.6 l -34.9,0.74 a 6,6 0 0 1 -2.7,-0.57 6.12,6.12 0 0 1 -3.57,-5.57 v -25.23 z"
               transform="translate(-79.34,-172.91)"
               fill="#3f3d56"
               id="path51488" />
            <path
               d="m 375.44,656.57 v 24.49 a 6.13,6.13 0 0 1 -3.5,5.54 6,6 0 0 1 -2.5,0.6 l -34.9,0.74 a 6,6 0 0 1 -2.7,-0.57 6.12,6.12 0 0 1 -3.57,-5.57 v -25.23 z"
               transform="translate(-79.34,-172.91)"
               opacity="0.1"
               id="path51490" />
            <path
               d="m 377.44,656.57 v 24.49 a 6.13,6.13 0 0 1 -3.5,5.54 6,6 0 0 1 -2.5,0.6 l -34.9,0.74 a 6,6 0 0 1 -2.7,-0.57 6.12,6.12 0 0 1 -3.57,-5.57 v -25.23 z"
               transform="translate(-79.34,-172.91)"
               fill="#3f3d56"
               id="path51492" />
            <rect
               x="680.92999"
               y="483.66"
               width="47.169998"
               height="31.5"
               fill="#3f3d56"
               id="rect51494" />
            <rect
               x="680.92999"
               y="483.66"
               width="47.169998"
               height="31.5"
               opacity="0.1"
               id="rect51496" />
            <rect
               x="678.92999"
               y="483.66"
               width="47.169998"
               height="31.5"
               fill="#3f3d56"
               id="rect51498" />
            <polygon
               points="230.6,271.55 211.6,271.06 211.6,265.82 230.6,265.82 "
               opacity="0.1"
               id="polygon51500" />
            <path
               d="m 435,277.31 -22.83,164 a 4.3,4.3 0 0 1 -4.37,3.71 l -182.8,-4.74 -3.47,-0.09 a 4.3,4.3 0 0 1 -4.16,-4.87 L 243,263.64 a 4.3,4.3 0 0 1 4.54,-3.63 L 431,272.43 a 4.29,4.29 0 0 1 4,4.88 z"
               transform="translate(-79.34,-172.91)"
               fill="#65617d"
               id="path51502" />
            <polygon
               points="156.6,250.49 324.6,255.82 345.26,109.82 175.93,99.16 "
               fill="#7fa5c1"
               id="polygon51504" />
            <rect
               x="384.60001"
               y="96.82"
               width="204.67"
               height="173.33"
               rx="5.3299999"
               ry="5.3299999"
               fill="#65617d"
               id="rect51506" />
            <rect
               x="394.26001"
               y="108.49"
               width="186"
               height="144.33"
               fill="#7fa5c1"
               id="rect51508" />
            <polygon
               points="741.93,266.61 722.93,267 722.93,262.82 741.93,262.82 "
               opacity="0.1"
               id="polygon51510" />
            <path
               d="m 907,432.53 a 3.08,3.08 0 0 1 -3,3.28 l -187.2,3.87 a 3.08,3.08 0 0 1 -3.13,-2.79 L 697.58,269.61 a 3.08,3.08 0 0 1 2.92,-3.37 l 185.78,-9.24 2,-0.1 a 3.07,3.07 0 0 1 3.22,2.8 z"
               transform="translate(-79.34,-172.91)"
               fill="#65617d"
               id="path51512" />
            <polygon
               points="798.6,94.82 812.93,246.82 644.6,250.82 628.93,103.16 "
               fill="#7fa5c1"
               id="polygon51514" />
            <path
               d="m 907,432.53 a 3.08,3.08 0 0 1 -3,3.28 L 886.28,257 l 2,-0.1 a 3.07,3.07 0 0 1 3.22,2.8 z"
               transform="translate(-79.34,-172.91)"
               opacity="0.1"
               id="path51516" />
            <path
               d="M 247.57,260 225,440.28 l -3.47,-0.09 a 4.3,4.3 0 0 1 -4.16,-4.87 L 243,263.64 a 4.3,4.3 0 0 1 4.57,-3.64 z"
               transform="translate(-79.34,-172.91)"
               opacity="0.1"
               id="path51518" />
            <rect
               x="211.60001"
               y="306.41"
               width="19"
               height="17.08"
               opacity="0.1"
               id="rect51520" />
            <polygon
               points="298.1,488.62 250.93,489.88 250.93,483.65 298.1,483.65 "
               opacity="0.1"
               id="polygon51522" />
            <path
               d="m 460.69,485.27 v 168.2 a 4,4 0 0 1 -3.85,3.95 l -191.65,5.1 h -0.05 a 4,4 0 0 1 -3.95,-3.95 v -173.3 a 4,4 0 0 1 3.95,-3.95 h 191.6 a 4,4 0 0 1 3.95,3.95 z"
               transform="translate(-79.34,-172.91)"
               fill="#65617d"
               id="path51524" />
            <path
               d="m 265.19,481.32 v 181.2 h -0.05 a 4,4 0 0 1 -3.95,-3.95 v -173.3 a 4,4 0 0 1 3.95,-3.95 z"
               transform="translate(-79.34,-172.91)"
               opacity="0.1"
               id="path51526" />
            <polygon
               points="372.1,319.15 372.1,467.4 194.6,471.4 194.6,319.15 "
               fill="#d4dfec"
               id="polygon51528" />
            <rect
               x="722.92999"
               y="306.41"
               width="19"
               height="17.42"
               opacity="0.1"
               id="rect51530" />
            <polygon
               points="726.1,490.06 678.93,488.8 678.93,483.65 726.1,483.65 "
               opacity="0.1"
               id="polygon51532" />
            <path
               d="m 867.69,485.27 v 173.3 a 4,4 0 0 1 -4,3.95 v 0 L 672,657.42 a 4,4 0 0 1 -3.85,-3.95 v -168.2 a 4,4 0 0 1 3.95,-3.95 h 191.6 a 4,4 0 0 1 3.99,3.95 z"
               transform="translate(-79.34,-172.91)"
               fill="#65617d"
               id="path51534" />
            <path
               d="m 867.69,485.27 v 173.3 a 4,4 0 0 1 -4,3.95 v 0 -181.2 0 a 4,4 0 0 1 4,3.95 z"
               transform="translate(-79.34,-172.91)"
               opacity="0.1"
               id="path51536" />
            <polygon
               points="598.1,319.15 598.1,467.4 775.6,471.4 775.6,319.15 "
               fill="#d4dfec"
               id="polygon51538" />
            <path
               d="m 663.19,485.27 v 168.2 a 4,4 0 0 1 -3.85,3.95 l -191.65,5.1 v 0 a 4,4 0 0 1 -4,-3.95 v -173.3 a 4,4 0 0 1 3.95,-3.95 h 191.6 a 4,4 0 0 1 3.95,3.95 z"
               transform="translate(-79.34,-172.91)"
               fill="#65617d"
               id="path51540" />
            <polygon
               points="574.6,319.15 574.6,467.4 397.1,471.4 397.1,319.15 "
               fill="#d4dfec"
               id="polygon51542" />
            <polygon
               points="650.44,548.63 632.89,548.78 632.37,548.78 525.39,549.77 349.78,551.4 349.63,551.4 304.98,551.82 304.5,551.83 106.1,553.65 106.1,538.65 308.61,537.32 309.09,537.32 350.08,537.04 350.27,537.04 633.35,535.17 633.64,535.17 633.81,535.16 634.28,535.16 639.07,535.13 640.53,535.13 715.02,534.63 719.42,534.61 720.4,534.6 863.1,533.65 863.1,546.65 711.18,548.05 709.56,548.08 651.82,548.61 "
               opacity="0.1"
               id="polygon51544" />
            <circle
               cx="487.26001"
               cy="272.16"
               r="51.330002"
               fill="#fbbebe"
               id="circle51546" />
            <path
               d="m 383.74,725.09 c 0,-0.11 0.06,-0.23 0.1,-0.35 1,-3.59 2.78,-9.66 4.11,-14.51 0.17,-0.6 0.33,-1.19 0.48,-1.75 1.47,-5.47 4.33,-18.28 5.92,-26.27 0.56,-2.81 1,-5 1.09,-6.1 0.2,-1.69 3.21,-8.92 6.62,-17.23 2.39,-5.84 5,-12.22 6.91,-17.6 a 61.38,61.38 0 0 0 2.93,-9.85 5.1,5.1 0 0 0 0,-2.13 14.69,14.69 0 0 1 -0.48,-3.5 v 0 c -0.23,-6.2 1.62,-16 4.48,-20.11 3.5,-5 6,-23.66 6,-23.66 0,0 5.18,0.75 6,-3.53 a 6.15,6.15 0 0 0 0.1,-1.4 7.41,7.41 0 0 0 -0.09,-1.11 c -0.89,-6.24 14.72,-12.88 23.5,-14.31 a 19.67,19.67 0 0 1 3,-0.28 27.24,27.24 0 0 0 6.25,-1.44 q 1.4,-0.43 3,-1 c 3.68,-1.24 8.08,-2.88 12.75,-4.68 17.56,-6.81 38.82,-16 38.82,-16 0.15,-0.71 0.32,-1.39 0.51,-2.06 a 27.71,27.71 0 0 1 16.35,-18.93 v 0 c 0,-0.66 0,-1.33 0,-2 0,-3.45 -0.15,-7 -0.3,-10.54 0,-0.69 -0.06,-1.38 -0.1,-2.07 0,-0.2 0,-0.41 0,-0.61 0,-0.2 0,-0.35 0,-0.52 0,-0.7 -0.07,-1.4 -0.11,-2.09 l -0.18,-0.14 a 16.41,16.41 0 0 1 -3.9,-4.2 15.27,15.27 0 0 1 -1.42,-3 c -1.25,-3.39 -1.54,-7.17 -2.38,-10.75 l -0.18,-0.74 a 84,84 0 0 0 -4,-10.58 c -2.21,-5.42 -3.91,-11 -5.6,-16.65 q -1.54,-5.13 -3.11,-10.28 l -1.58,-5.24 c -0.3,-1 -0.6,-2 -0.83,-3 v 0 a 13.27,13.27 0 0 1 -0.26,-1.4 10,10 0 0 1 0.24,-4.61 32.09,32.09 0 0 1 1.32,-3 7.87,7.87 0 0 0 0.5,-1.38 v 0 a 3,3 0 0 0 0.08,-0.32 5.65,5.65 0 0 0 0.11,-1.08 18.46,18.46 0 0 0 -0.52,-3.89 0.07,0.07 0 0 1 0,-0.05 2.56,2.56 0 0 0 -0.05,-0.27 25.48,25.48 0 0 1 -0.36,-3 28.45,28.45 0 0 1 3.47,-15.57 l 0.19,-0.36 a 25.22,25.22 0 0 1 1.84,-2.78 v 0 c 0.31,-0.42 0.63,-0.82 1,-1.22 -1.4,1.34 -3.7,0.75 -5,-0.69 a 3.61,3.61 0 0 1 -0.55,-0.75 3.81,3.81 0 0 1 -0.23,-0.45 c -0.05,-0.12 -0.09,-0.25 -0.13,-0.38 -0.7,-2.45 0.52,-5.06 2.12,-7.05 a 18.49,18.49 0 0 1 5.74,-4.7 v 0 a 3.84,3.84 0 0 1 0.4,-0.21 17.12,17.12 0 0 1 2.64,-1.06 v 0 a 15.06,15.06 0 0 1 1.63,-0.44 l -3.71,-0.34 -1.5,-0.14 a 14.49,14.49 0 0 1 13,-10.91 h 1.08 a 11.73,11.73 0 0 1 1.57,0.13 4.44,4.44 0 0 1 -2.65,-4.33 14.41,14.41 0 0 0 9.19,3.06 h 0.38 a 30,30 0 0 1 -0.34,-3.27 v 0 a 33.19,33.19 0 0 1 0,-4.46 8.44,8.44 0 0 0 6.78,2.26 l -2.08,-2.9 a 9.49,9.49 0 0 0 6.56,2.05 l 0.48,-0.05 a 7,7 0 0 0 1.19,-0.23 h 0.09 c -0.19,-0.24 -0.36,-0.49 -0.53,-0.75 l -0.06,-0.12 a 9.67,9.67 0 0 1 -1,-2.09 6.59,6.59 0 0 1 -0.24,-0.87 v 0 a 8.75,8.75 0 0 1 0.45,-5.45 c 3.23,2.7 6.77,6.39 11,3.6 4.23,-2.79 4.37,-7.91 11,-7.39 a 10.2,10.2 0 0 1 8.41,6.12 6.75,6.75 0 0 1 7.67,-1.75 6.85,6.85 0 0 1 3.88,6.89 c 2.75,-0.69 5.71,-1.37 8.35,-0.33 2.64,1.04 4.34,4.41 2.84,6.66 a 1.43,1.43 0 0 1 -0.14,0.2 c -1.23,1.59 -3.95,2.46 -3.66,4.46 l 0.42,0.3 1.3,0.94 q 7.65,5.52 14.9,11.6 c 2.48,2.08 5.12,4.58 5.29,7.83 a 8.64,8.64 0 0 1 -0.24,2.37 v 0 c -0.16,0.78 -0.38,1.56 -0.55,2.34 a 19.51,19.51 0 0 0 -0.34,6.05 v 0 c 0.07,0.59 0.16,1.17 0.27,1.76 1.53,7.73 7.71,14.11 8.32,22 v 0.56 a 17.78,17.78 0 0 1 -0.07,2.53 c -0.46,4.8 -2.68,9.41 -4.48,14 -0.11,0.28 -0.22,0.56 -0.32,0.84 -3.47,9 -5.47,18.59 -7,28.16 a 100.26,100.26 0 0 1 -2,10.09 26.73,26.73 0 0 1 -5.09,10.43 16.22,16.22 0 0 1 -3.36,3 18.67,18.67 0 0 1 -2.65,1.41 c 0,0 0,0 0,0.06 0.11,0.61 0.2,1.22 0.31,1.83 0.06,0.32 0.11,0.64 0.17,1 v 0 a 0.14,0.14 0 0 0 0,0.06 c 0.84,4.73 1.8,9.36 2.81,13.76 l 0.51,2.19 c 12.6,4.55 14.09,13.87 14.18,17.44 a 9.64,9.64 0 0 1 0,1.43 c 0,0 19,0.5 26.5,6 a 20.34,20.34 0 0 0 4.51,2.3 83,83 0 0 0 9.25,2.89 c 1.61,0.42 3.29,0.83 5,1.23 3,0.69 6.18,1.36 9.25,2 8.19,1.65 15.9,3 19.81,4 9.33,2.36 30.67,22.82 30.67,22.82 0,0 2.5,20.64 5,23.65 2.5,3.01 7,13.59 7,13.59 l 16.54,29.41 7,12.37 h 4.5 c 0.62,0 1.84,0.88 3.21,2.1 1.19,1.06 2.51,2.38 3.67,3.58 l 1.92,2.05 1.2,1.33 c 0,0 7.27,0.18 9.24,5.93 5.92,-0.17 13.19,0.22 18.28,2.5 a 14.14,14.14 0 0 1 2,1.08 8.68,8.68 0 0 1 4.13,5.66 8.34,8.34 0 0 1 0.18,1.44 c 0,0.57 0,1.14 0,1.7 -0.36,7.57 -5.29,13.87 -9.82,18.11 l 0.32,0.57 c 0,0 -0.15,0.36 -0.44,1 -0.08,0.19 -0.18,0.4 -0.29,0.64 v 0 c -0.59,1.26 -1.53,3.15 -2.76,5.36 a 63.31,63.31 0 0 1 -9.57,13.17 l -0.29,0.3 -57.74,0.53 -0.17,-0.2 -11.2,-13.36 -5.57,-6.64 -0.17,-0.21 -0.16,1.59 -0.54,5.3 -1.3,12.81 -0.07,0.64 v 0.17 l -0.15,1.48 0.11,-1.48 h -0.29 l -107,1 -175.62,1.94 v 0.84 h -0.14 v -0.84 l -44.75,0.48 z"
               transform="translate(-79.34,-172.91)"
               fill="url(#dff037aa-d578-4bab-81e7-399360663117-17)"
               id="path51548"
               style="fill:url(#dff037aa-d578-4bab-81e7-399360663117-17)" />
            <path
               d="m 617.94,550.07 c 0,0 -99.5,12 -90,0 3.44,-4.34 4.39,-17.2 4.2,-31.85 -0.06,-4.45 -0.22,-9.06 -0.45,-13.65 -1.1,-22 -3.75,-43.5 -3.75,-43.5 0,0 87,-41 77,-8.5 -4,13.13 -2.69,31.57 0.35,48.88 0.89,5.05 1.92,10 3,14.7 a 344.67,344.67 0 0 0 9.65,33.92 z"
               transform="translate(-79.34,-172.91)"
               fill="#fbbebe"
               id="path51550" />
            <path
               d="m 617.94,550.07 c 0,0 -99.5,12 -90,0 3.44,-4.34 4.39,-17.2 4.2,-31.85 15.17,-6.48 34.47,-1.65 34.47,-1.65 20.32,-4.05 33.35,-3.26 41.68,-0.42 a 344.67,344.67 0 0 0 9.65,33.92 z"
               transform="translate(-79.34,-172.91)"
               opacity="0.1"
               id="path51552" />
            <path
               d="m 429.08,725.44 v -0.84 l 175.62,-1.91 107,-1 h 0.3 l -0.11,1.48 0.15,-1.48 h 0.19 v -0.17 l 1.37,-13.45 0.52,-5.09 0.16,-1.59 0.14,-1.33 6.18,-20.61 6.18,-20.58 5.2,-17.33 7.94,-26.48 c 0,0 -4.5,-10.5 -7,-13.5 -2.5,-3 -5,-23.5 -5,-23.5 0,0 -21.34,-20.33 -30.67,-22.67 -3.91,-1 -11.63,-2.33 -19.83,-4 -3.07,-0.62 -6.22,-1.28 -9.25,-2 -1.71,-0.39 -3.39,-0.8 -5,-1.21 a 87.91,87.91 0 0 1 -9.25,-2.86 20.7,20.7 0 0 1 -4.5,-2.29 c -7.35,-5.39 -25.77,-6 -26.48,-6 v 0 a 0.42,0.42 0 0 1 0,-0.07 v -0.09 a 10.26,10.26 0 0 0 0,-1.26 c 0,-0.4 0,-0.87 -0.09,-1.4 0,-0.16 0,-0.33 -0.07,-0.5 -0.05,-0.36 -0.11,-0.74 -0.2,-1.14 a 5,5 0 0 0 -0.12,-0.53 17.21,17.21 0 0 0 -1.25,-3.49 c -0.07,-0.16 -0.16,-0.33 -0.24,-0.49 a 18.25,18.25 0 0 0 -1.7,-2.63 c -0.13,-0.17 -0.27,-0.35 -0.42,-0.52 a 19.58,19.58 0 0 0 -2.72,-2.64 c -0.27,-0.21 -0.55,-0.43 -0.84,-0.63 a 4.67,4.67 0 0 0 -0.51,-0.36 l -0.89,-0.58 -0.83,-0.48 c -0.73,-0.4 -1.5,-0.79 -2.34,-1.16 -0.26,-0.12 -0.54,-0.23 -0.82,-0.34 -0.28,-0.11 -0.72,-0.28 -1.09,-0.42 h -0.06 L 608,518 c -0.57,-0.19 -1.15,-0.36 -1.76,-0.53 l -0.93,-0.24 -1,-0.23 -1,-0.21 c -1,-0.2 -2.07,-0.38 -3.19,-0.52 l -1.14,-0.14 -1.17,-0.12 -1.21,-0.1 -1.72,-0.1 -2,-0.07 a 124.68,124.68 0 0 0 -26.24,2.79 72.27,72.27 0 0 0 -18.26,-1.68 h -0.87 l -1,0.06 h -0.64 l -1.29,0.12 c -0.43,0 -0.87,0.09 -1.3,0.15 -0.43,0.06 -0.88,0.11 -1.31,0.18 l -0.66,0.11 c -0.65,0.11 -1.31,0.23 -2,0.37 q -0.33,0.06 -0.66,0.15 c -0.87,0.19 -1.74,0.42 -2.6,0.68 -0.43,0.12 -0.86,0.26 -1.29,0.41 -0.22,0.06 -0.43,0.14 -0.64,0.22 l -0.64,0.23 -0.63,0.25 -0.75,0.3 c -0.38,0.16 -0.75,0.33 -1.12,0.51 -0.21,0.09 -0.42,0.19 -0.62,0.3 -0.2,0.11 -0.41,0.2 -0.6,0.31 a 27.75,27.75 0 0 0 -6.21,4.38 l -0.51,0.49 -0.5,0.51 c -0.17,0.17 -0.33,0.35 -0.49,0.53 a 23.82,23.82 0 0 0 -1.82,2.25 c -0.16,0.21 -0.31,0.42 -0.46,0.64 a 26.69,26.69 0 0 0 -1.72,2.92 c -0.13,0.24 -0.25,0.49 -0.37,0.73 a 32.7,32.7 0 0 0 -2,5.25 q -0.28,1 -0.51,2 c 0,0 -21.17,9.34 -38.73,16.1 -4.67,1.8 -9.07,3.43 -12.75,4.66 -1.07,0.36 -2.07,0.69 -3,1 a 26.7,26.7 0 0 1 -6.25,1.44 19.67,19.67 0 0 0 -3,0.28 c -8.07,1.31 -21.9,7 -23.41,12.71 a 3.69,3.69 0 0 0 -0.1,1.4 c 0,0 0,0.07 0,0.11 1,7 -6,6 -6,6 0,0 -2.5,18.5 -6,23.5 -2.53,3.6 -4.26,11.63 -4.48,17.69 v 0 a 19.61,19.61 0 0 0 0.44,5.63 c 0,0.05 0,0.1 0,0.14 0.4,1.34 -0.56,5 -2.19,9.69 -1.77,5.15 -4.35,11.55 -6.83,17.59 -3.74,9.12 -7.26,17.4 -7.48,19.22 -0.09,0.81 -0.35,2.26 -0.71,4.13 -1.46,7.62 -4.7,22.13 -6.3,28 -1.19,4.38 -2.92,10.38 -4.11,14.5 0,0.12 -0.07,0.24 -0.1,0.35 L 429,724.6 v 0.84 h 0.14 z"
               transform="translate(-79.34,-172.91)"
               fill="#7fa5c1"
               id="path51554" />
            <path
               d="m 445.44,607.57 c 0,0 57,29.5 77.5,26 z"
               transform="translate(-79.34,-172.91)"
               opacity="0.1"
               id="path51556" />
            <path
               d="m 561.44,595.57 c 0,0 55.5,18 74,20.5 18.5,2.5 -74,-20.5 -74,-20.5 z"
               transform="translate(-79.34,-172.91)"
               opacity="0.1"
               id="path51558" />
            <path
               d="m 623,537.65 c -29,5.34 -83.6,4.19 -107.2,3.38 8.65,-31 50.83,-20.46 50.83,-20.46 52.21,-10.42 56.21,11.2 56.37,17.08 z"
               transform="translate(-79.34,-172.91)"
               opacity="0.1"
               id="path51560" />
            <path
               d="m 623,535.65 c -29,5.34 -83.6,4.19 -107.2,3.38 8.65,-31 50.83,-20.46 50.83,-20.46 52.21,-10.42 56.21,11.2 56.37,17.08 z"
               transform="translate(-79.34,-172.91)"
               fill="#7fa5c1"
               id="path51562" />
            <path
               d="m 776.94,672.32 c 0,0 34.16,-5.25 34.83,9.75 0.67,15 -17.42,25.48 -17.42,25.48 z"
               transform="translate(-79.34,-172.91)"
               fill="#fbbebe"
               id="path51564" />
            <path
               d="m 605.29,501.45 a 47,47 0 0 1 -4.5,1.74 c -10.78,3.72 -21.65,7.47 -33,8.83 -11.35,1.36 -23.26,0.16 -33.16,-5.5 a 28.77,28.77 0 0 1 -3,-1.95 c -1.1,-22 -3.75,-43.5 -3.75,-43.5 0,0 87,-41 77,-8.5 -3.98,13.13 -2.63,31.57 0.41,48.88 z"
               transform="translate(-79.34,-172.91)"
               opacity="0.1"
               id="path51566" />
            <path
               d="m 552.52,364.84 a 9.47,9.47 0 0 1 -8.32,-1.75 l 2.08,2.89 a 8.47,8.47 0 0 1 -6.78,-2.25 34.08,34.08 0 0 0 0.32,7.75 14.52,14.52 0 0 1 -9.56,-3 4.42,4.42 0 0 0 2.64,4.31 14.34,14.34 0 0 0 -15.6,10.71 l 5.22,0.48 a 18.47,18.47 0 0 0 -10.44,6.37 c -1.6,2 -2.82,4.56 -2.12,7 0.7,2.44 4.08,4 5.92,2.26 a 27.94,27.94 0 0 0 -6.1,22.79 14.47,14.47 0 0 1 0.46,5.26 c -0.33,1.65 -1.37,3.08 -1.89,4.69 -1,2.92 -0.05,6.09 0.84,9 l 4.69,15.42 c 1.7,5.57 3.39,11.15 5.61,16.54 a 82.08,82.08 0 0 1 4,10.51 c 1.26,4.84 1.31,10.14 4,14.37 a 19.93,19.93 0 0 0 7.18,6.33 c 9.89,5.66 21.84,6.86 33.16,5.5 11.32,-1.36 22.18,-5.11 32.95,-8.83 a 31,31 0 0 0 6.84,-3 c 7.45,-4.88 9.11,-14.86 10.5,-23.65 1.55,-9.8 3.62,-19.58 7.29,-28.8 2.18,-5.49 5,-11.06 4.52,-16.94 -0.61,-7.81 -6.79,-14.14 -8.32,-21.82 a 19,19 0 0 1 0.07,-7.77 17.66,17.66 0 0 0 0.79,-4.7 c -0.17,-3.22 -2.81,-5.7 -5.29,-7.77 Q 609.11,380 600.52,374 c -0.29,-2 2.43,-2.86 3.66,-4.44 1.74,-2.23 -0.06,-5.77 -2.7,-6.81 -2.64,-1.04 -5.6,-0.36 -8.35,0.33 a 6.59,6.59 0 0 0 -11.55,-5.11 10.2,10.2 0 0 0 -8.42,-6.08 c -6.63,-0.52 -6.76,4.55 -11,7.34 -4.24,2.79 -7.74,-0.89 -11,-3.57 a 9.28,9.28 0 0 0 1.36,9.18 z"
               transform="translate(-79.34,-172.91)"
               fill="#3f3d56"
               id="path51568" />
            <path
               d="m 802.27,702.32 c 0,0 -0.89,2.12 -2.53,5.19 a 69,69 0 0 1 -9,13.17 l -0.27,0.29 h -1.62 l -57.74,0.53 h -1.38 l -0.17,-0.2 -11.2,-13.29 -4.22,-5.01 -0.17,-0.21 -0.36,-0.42 -0.2,-0.24 -0.26,-0.31 -8.21,-9.74 3,-12.5 5.11,-21.06 0.13,-0.51 1,-4 0.71,-3 2.38,-9.78 8.16,-33.65 14.5,7.5 15.29,27 8.21,14.5 h 4.5 c 0.85,0 2.8,1.64 4.76,3.53 0.7,0.67 1.4,1.38 2,2 1.78,1.84 3.19,3.42 3.19,3.42 0,0 7.29,0.16 9.25,5.9 a 7,7 0 0 1 0.25,0.85 40.3,40.3 0 0 0 2.53,6.56 c 1.29,2.81 2.91,6 4.55,9.19 3.05,5.85 6.15,11.42 7.29,13.44 l 0.14,0.25 z"
               transform="translate(-79.34,-172.91)"
               fill="#7fa5c1"
               id="path51570" />
            <path
               d="m 716.37,657.17 -0.1,1.43 v 0.1 l -0.17,2.3 -1.33,18.51 -1.61,22.3 -0.46,6.28 -1,13.44 v 0.17 l -107,1 -175.59,1.9 v 0.84 h -0.14 v -0.84 -0.28 l 0.45,-14.36 0.86,-28.06 0.74,-23.79 0.07,-2.37 a 10.53,10.53 0 0 1 11.42,-10.17 c 4.72,0.4 10.85,0.89 18.18,1.41 l 3,0.22 c 42.33,2.94 120.56,6.74 199.5,2 1.66,-0.09 3.33,-0.19 5,-0.31 12.24,-0.77 24.47,-1.76 36.58,-3 a 10.53,10.53 0 0 1 11.6,11.23 z"
               transform="translate(-79.34,-172.91)"
               opacity="0.1"
               id="path51572" />
            <path
               d="m 429.08,725.44 v -0.84 l 175.62,-1.91 107,-1 h 0.3 v -0.17 l 1,-13.44 0.43,-6 1.64,-22.61 1.29,-17.9 v -0.44 a 10.62,10.62 0 0 0 -0.11,-2.47 0.3,0.3 0 0 0 0,-0.1 10.39,10.39 0 0 0 -2,-4.64 10.54,10.54 0 0 0 -9.42,-4 c -12.11,1.24 -24.34,2.23 -36.58,3 -1.67,0.12 -3.34,0.22 -5,0.31 -78.94,4.69 -157.17,0.89 -199.5,-2 l -3,-0.22 c -7.33,-0.52 -13.46,-1 -18.18,-1.41 a 10.54,10.54 0 0 0 -11.24,8.53 11,11 0 0 0 -0.18,1.64 l -0.68,22.16 -0.93,28.07 -0.44,14.36 v 0.28 0.84 z"
               transform="translate(-79.34,-172.91)"
               fill="#3f3d56"
               id="path51574" />
            <path
               d="m 716.67,664.18 -1.23,15.33 -1.83,22.85 -0.46,5.72 -1,12.81 -0.06,0.64 v 0.17 0 l -0.15,1.48 0.11,-1.48 h -0.29 l -107,1 -175.65,1.9 v -0.28 l 0.49,-14.36 1,-28.06 0.64,-18.65 a 6.36,6.36 0 0 1 3.06,-5.25 6.25,6.25 0 0 1 3.78,-0.9 c 2.1,0.17 4.68,0.37 7.69,0.59 4.89,0.36 10.92,0.78 17.94,1.22 13,0.82 29.31,1.7 48,2.42 52,2 122.2,2.67 188.88,-3.17 3,-0.26 6.1,-0.55 9.13,-0.84 a 6.26,6.26 0 0 1 3.48,0.66 5.16,5.16 0 0 1 0.86,0.54 6.14,6.14 0 0 1 2,2.46 3.56,3.56 0 0 1 0.25,0.61 6.28,6.28 0 0 1 0.36,2.59 z"
               transform="translate(-79.34,-172.91)"
               opacity="0.1"
               id="path51576" />
            <path
               d="m 377.44,677.87 v 3.19 a 6.13,6.13 0 0 1 -3.5,5.54 l -40.1,0.77 a 6.12,6.12 0 0 1 -3.57,-5.57 v -3 z"
               transform="translate(-79.34,-172.91)"
               opacity="0.1"
               id="path51578" />
            <polygon
               points="246.35,516.57 246.35,507.9 298.6,506.9 298.6,515.57 "
               fill="#3f3d56"
               id="polygon51580" />
            <polygon
               points="246.35,516.57 246.35,507.9 298.6,506.9 298.6,515.57 "
               opacity="0.1"
               id="polygon51582" />
            <polygon
               points="248.35,516.57 248.35,507.9 300.6,506.9 300.6,515.57 "
               fill="#3f3d56"
               id="polygon51584" />
            <g
               opacity="0.1"
               id="g51604">
              <path
                 d="m 552.93,361.56 a 9.75,9.75 0 0 1 -1.89,-4.34 9.49,9.49 0 0 0 0.42,4.6 9,9 0 0 0 1.47,-0.26 z"
                 transform="translate(-79.34,-172.91)"
                 id="path51586" />
              <path
                 d="m 540.23,368.2 a 35.12,35.12 0 0 1 -0.37,-3.7 c 0,1.23 0,2.47 0,3.71 z"
                 transform="translate(-79.34,-172.91)"
                 id="path51588" />
              <path
                 d="m 621.73,401.57 a 18.34,18.34 0 0 1 0.36,-2.65 18,18 0 0 0 0.8,-4.69 6.16,6.16 0 0 0 -0.16,-1.06 c -0.17,0.92 -0.44,1.84 -0.64,2.75 a 19.14,19.14 0 0 0 -0.36,5.65 z"
                 transform="translate(-79.34,-172.91)"
                 id="path51590" />
              <path
                 d="m 600.93,370.67 1.09,0.79 a 19.71,19.71 0 0 0 2.57,-2.22 3.67,3.67 0 0 0 0.38,-3.64 3,3 0 0 1 -0.38,0.64 c -1.23,1.58 -3.95,2.45 -3.66,4.43 z"
                 transform="translate(-79.34,-172.91)"
                 id="path51592" />
              <path
                 d="m 518.76,380.29 a 12.32,12.32 0 0 0 -0.87,2.28 18.16,18.16 0 0 1 5,-1.89 z"
                 transform="translate(-79.34,-172.91)"
                 id="path51594" />
              <path
                 d="m 532.55,369.41 a 14.83,14.83 0 0 1 -1.88,-1.23 4.25,4.25 0 0 0 0.09,1.18 11.86,11.86 0 0 1 1.79,0.05 z"
                 transform="translate(-79.34,-172.91)"
                 id="path51596" />
              <path
                 d="m 630.32,428.33 c -0.41,4.85 -2.67,9.52 -4.5,14.12 -3.67,9.22 -5.74,19 -7.29,28.81 -1.39,8.79 -3,18.77 -10.5,23.64 a 30,30 0 0 1 -6.83,3 c -10.78,3.73 -21.65,7.47 -33,8.83 -11.35,1.36 -23.26,0.17 -33.16,-5.49 a 20,20 0 0 1 -7.18,-6.33 c -2.67,-4.23 -2.72,-9.53 -4,-14.37 a 82.21,82.21 0 0 0 -4,-10.52 c -2.21,-5.38 -3.91,-11 -5.6,-16.53 q -2.35,-7.71 -4.69,-15.43 a 28.81,28.81 0 0 1 -1.14,-4.75 c -0.39,2.56 0.37,5.24 1.14,7.75 q 2.34,7.73 4.69,15.43 c 1.69,5.57 3.39,11.15 5.6,16.53 a 82.21,82.21 0 0 1 4,10.52 c 1.26,4.84 1.31,10.14 4,14.37 a 20,20 0 0 0 7.18,6.33 c 9.9,5.66 21.84,6.85 33.16,5.49 11.32,-1.36 22.18,-5.1 33,-8.83 a 30,30 0 0 0 6.83,-3 c 7.45,-4.87 9.11,-14.85 10.5,-23.64 1.55,-9.81 3.62,-19.59 7.29,-28.81 2.18,-5.48 5,-11.05 4.52,-16.94 0,-0.06 -0.02,-0.12 -0.02,-0.18 z"
                 transform="translate(-79.34,-172.91)"
                 id="path51598" />
              <path
                 d="m 510.63,424.46 c 0,0 0,-0.07 0,-0.11 a 14,14 0 0 0 -0.46,-5.25 26.59,26.59 0 0 1 -0.39,-3.32 27.35,27.35 0 0 0 0.39,6.32 c 0.16,0.78 0.34,1.57 0.46,2.36 z"
                 transform="translate(-79.34,-172.91)"
                 id="path51600" />
              <path
                 d="m 513.68,400 a 27.74,27.74 0 0 1 2.61,-3.67 c -1.83,1.75 -5.21,0.19 -5.92,-2.24 a 5.83,5.83 0 0 0 0,3 4.39,4.39 0 0 0 3.31,2.91 z"
                 transform="translate(-79.34,-172.91)"
                 id="path51602" />
            </g>
            <path
               d="m 763.44,656.57 c 0,0 3.17,11.5 0,21.5 -3.17,10 0,-21.5 0,-21.5 z"
               transform="translate(-79.34,-172.91)"
               opacity="0.1"
               id="path51606" />
            <path
               d="m 776.94,668.3 c 0,0 1.33,14.6 -1.67,17.19 -3,2.59 1.67,-17.19 1.67,-17.19 z"
               transform="translate(-79.34,-172.91)"
               opacity="0.1"
               id="path51608" />
            <line
               x1="198.99001"
               y1="342.85999"
               x2="300.60001"
               y2="341.85999"
               fill="none"
               stroke="#6c63ff"
               stroke-miterlimit="10"
               stroke-width="2"
               id="line51610" />
            <line
               x1="198.99001"
               y1="355.32999"
               x2="300.60001"
               y2="354.34"
               fill="none"
               stroke="#6c63ff"
               stroke-miterlimit="10"
               stroke-width="2"
               id="line51612" />
            <line
               x1="198.99001"
               y1="367.81"
               x2="300.60001"
               y2="366.81"
               fill="none"
               stroke="#6c63ff"
               stroke-miterlimit="10"
               stroke-width="2"
               id="line51614" />
          </g>
          <g
             id="g51252"
             inkscape:export-filename="/home/blau/imgs/thumbs/debxp-2022-marca.png"
             inkscape:export-xdpi="96"
             inkscape:export-ydpi="96"
             transform="matrix(0.34210223,0,0,0.34210223,199.47867,-60.919044)"
             style="stroke-width:2.92311">
            <g
               id="g51236"
               transform="matrix(0.84995058,0,0,0.84995058,-262.93785,-216.89707)"
               style="opacity:0;stroke-width:3.43915"
               inkscape:export-filename="/home/blau/imgs/thumbs/debxp-2022-logo.png"
               inkscape:export-xdpi="96"
               inkscape:export-ydpi="96">
              <rect
                 style="opacity:1;vector-effect:none;fill:#252b41;fill-opacity:1;fill-rule:evenodd;stroke:none;stroke-width:36.3976;stroke-linecap:round;stroke-linejoin:bevel;stroke-miterlimit:4;stroke-dasharray:none;stroke-dashoffset:0;stroke-opacity:1"
                 id="rect51234"
                 width="131.42249"
                 height="131.42249"
                 x="26.791647"
                 y="-238.87608"
                 rx="0"
                 ry="0" />
            </g>
            <g
               id="g51250"
               transform="translate(-246.65222,-521.02913)"
               style="stroke-width:2.92311">
              <path
                 id="path51238"
                 style="vector-effect:none;fill:#5a858b;fill-opacity:1;fill-rule:evenodd;stroke:none;stroke-width:116.923;stroke-linecap:round;stroke-linejoin:bevel;stroke-miterlimit:4;stroke-dasharray:none;stroke-dashoffset:0;stroke-opacity:1"
                 d="m 765.12891,400.97656 v 21.83008 94.28906 58.2168 21.83008 H 902.83984 V 575.3125 H 786.95898 V 481.02148 422.80664 H 881.25 939.46484 v 0.34375 93.94531 0.34571 h -0.34375 -94.29101 V 481.8457 h 58.00976 V 460.01562 H 844.83008 823 v 21.83008 35.59571 21.83007 h 116.12109 0.34375 21.83008 V 517.44141 517.0957 423.15039 400.97656 H 881.25 786.95898 Z"
                 transform="matrix(0.26458334,0,0,0.26458334,-166.05424,14.075405)" />
              <g
                 id="g51248"
                 transform="translate(23.936776,25.210212)"
                 style="stroke-width:2.92311">
                <g
                   id="g51242"
                   transform="rotate(-90,43.81663,126.47861)"
                   style="stroke-width:2.92311">
                  <rect
                     style="opacity:1;vector-effect:none;fill:#496071;fill-opacity:1;fill-rule:evenodd;stroke:none;stroke-width:30.9361;stroke-linecap:round;stroke-linejoin:bevel;stroke-miterlimit:4;stroke-dasharray:none;stroke-dashoffset:0;stroke-opacity:1"
                     id="rect51240"
                     width="20.969824"
                     height="5.7758336"
                     x="-131.54736"
                     y="12.603851"
                     transform="rotate(-90)" />
                </g>
                <g
                   id="g51246"
                   transform="matrix(0,-1,0.53924549,0,-26.881945,181.12754)"
                   style="stroke-width:3.98062">
                  <rect
                     style="opacity:1;vector-effect:none;fill:#496071;fill-opacity:1;fill-rule:evenodd;stroke:none;stroke-width:42.128;stroke-linecap:round;stroke-linejoin:bevel;stroke-miterlimit:4;stroke-dasharray:none;stroke-dashoffset:0;stroke-opacity:1"
                     id="rect51244"
                     width="20.969824"
                     height="5.7758336"
                     x="-131.54736"
                     y="12.603851"
                     transform="rotate(-90)" />
                </g>
              </g>
            </g>
          </g>
        </g>
        <g
           id="g51711"
           transform="translate(0,57.002727)">
          <rect
             style="vector-effect:none;fill:#5a858b;fill-opacity:1;fill-rule:evenodd;stroke:none;stroke-width:10.5833;stroke-linecap:round;stroke-linejoin:bevel;stroke-miterlimit:4;stroke-dasharray:none;stroke-dashoffset:0;stroke-opacity:1"
             id="rect23089"
             width="508"
             height="59.420349"
             x="-162.13368"
             y="-198.31125"
             inkscape:export-filename="/home/blau/imgs/thumbs/capa-twitter.png"
             inkscape:export-xdpi="96"
             inkscape:export-ydpi="96" />
          <rect
             style="vector-effect:none;fill:#474d67;fill-opacity:1;fill-rule:evenodd;stroke:none;stroke-width:10.5833;stroke-linecap:round;stroke-linejoin:bevel;stroke-miterlimit:4;stroke-dasharray:none;stroke-dashoffset:0;stroke-opacity:1"
             id="rect13873"
             width="508"
             height="56.29108"
             x="-162.13368"
             y="-196.74661"
             inkscape:export-filename="/home/blau/imgs/thumbs/capa-twitter.png"
             inkscape:export-xdpi="96"
             inkscape:export-ydpi="96" />
          <path
             id="path30121"
             style="fill:#252b41;fill-opacity:1;stroke-width:1;filter:url(#filter34300)"
             d="m -40.53125,-231.96875 c -2.927267,0.0806 -5.531861,1.74814 -7.531436,3.77791 -3.504303,3.22635 -6.854388,6.61975 -10.094777,10.1103 -0.602053,0.68878 -1.156344,1.41725 -1.735115,2.12546 4.890456,5.55288 10.288022,10.62954 15.483352,15.88937 0.982319,0.7297 2.239632,0.29112 3.354076,0.35866 1.865102,-0.10059 3.985793,-0.0796 5.406447,1.32629 1.539081,1.22971 2.668575,3.13669 2.465197,5.15927 0.02341,1.52259 -0.07529,3.04463 -0.01962,4.56719 4.712508,4.71914 9.424231,9.43905 14.136719,14.15821 2.538761,0.37207 5.243031,-0.41494 7.664224,0.64387 1.8453797,1.11363 3.4821506,3.02198 3.4237135,5.28831 0.1063678,1.68556 -0.096447,3.52964 -1.3177138,4.80726 -1.3064357,1.50643 -3.2033907,2.36258 -5.2233487,2.37384 -3.359351,-0.004 -6.4065,-2.95722 -6.430875,-6.33437 -0.06174,-1.50029 0.551005,-2.93636 0.540117,-4.42259 -0.225368,-1.24036 -1.505384,-1.80635 -2.222311,-2.73161 -3.63284,-3.58174 -7.124807,-7.33075 -11.015649,-10.63319 -1.976265,-1.20905 -4.782622,0.77484 -4.429876,3.02996 -0.36191,10.75293 -0.131972,21.51317 -0.208984,32.26953 1.858915,1.70517 4.054934,3.14008 4.930433,5.59599 0.550469,1.63648 0.317786,3.38287 -0.451972,4.86244 -0.94168,1.80392 -2.582554,3.17429 -4.634711,3.48688 -3.119016,0.64693 -6.692244,-1.26391 -7.501293,-4.42115 -0.29758,-1.40353 -0.241287,-2.89891 0.08922,-4.28839 0.63646,-1.59846 1.939321,-2.9165 3.435508,-3.73967 0.559821,-0.29451 1.162656,-0.49093 1.751953,-0.7168 0,-12.23177 0,-24.46354 0,-36.69531 -2.155264,-1.20892 -4.570521,-2.65195 -5.308593,-5.17969 -0.434188,-2.10257 0.423931,-4.2853 -0.16211,-6.35938 -0.711763,-1.76243 -2.315298,-2.91442 -3.522419,-4.31631 -3.424687,-3.46181 -6.826397,-6.95989 -10.450188,-10.2137 -1.019426,-0.86951 -2.620116,-1.07636 -3.693409,-0.18092 -1.304699,0.97846 -2.317354,2.28262 -3.527343,3.37087 -10.75011,10.70189 -21.577469,21.32507 -32.070715,32.27745 -1.771151,1.93068 -3.664071,4.11703 -3.800531,6.86878 -0.29703,2.7551 0.46711,5.68044 2.41237,7.71186 1.521014,1.67861 3.163553,3.24248 4.703794,4.9043 10.882097,11.16754 21.994069,22.10891 33.008982,33.14606 5.638225,5.59769 11.234494,11.24159 17.054184,16.65122 1.848599,1.6198 4.351332,2.37379 6.789964,2.17221 2.460163,-0.10793 4.793391,-1.2692 6.478021,-3.046 3.77521,-3.47421 7.34332,-7.16565 11.011563,-10.75137 13.0346832,-12.93111 26.0237264,-25.90972 38.881393,-39.01495 1.675563,-1.7557 3.430726,-3.45797 4.946711,-5.3504 1.508099,-2.48424 1.308004,-5.56768 0.808378,-8.31311 -0.720063,-2.64895 -3.086974,-4.30182 -4.821374,-6.26412 -10.6536152,-11.09027 -21.6323258,-21.85774 -32.466702,-32.76964 -6.2057,-6.16547 -12.325077,-12.42528 -18.797366,-18.31387 -1.789674,-1.57417 -3.98358,-3.01819 -6.47181,-2.87345 -0.288561,-0.008 -0.577633,-0.007 -0.866081,-0.004 z" />
          <path
             style="fill:#f05134;fill-opacity:1;stroke-width:1"
             d="m -42.387669,-108.82154 c -1.24277,-0.37395 -2.98717,-2.05999 -28.79244,-27.82897 -20.8945,-20.86513 -27.63367,-27.74754 -28.15531,-28.75381 -0.51953,-1.0022 -0.691321,-1.73985 -0.708601,-3.04271 -0.0467,-3.52097 -1.03581,-2.35668 19.386451,-22.82031 10.12955,-10.15008 18.4997,-18.45469 18.60032,-18.45469 0.10062,0 3.11572,2.9209 6.70022,6.49088 5.73712,5.71387 6.49171,6.5611 6.30373,7.0776 -0.11745,0.3227 -0.21088,1.71782 -0.20764,3.10027 0.005,1.997 0.12219,2.76777 0.57174,3.75065 0.66386,1.45142 2.44924,3.47097 3.85413,4.35963 l 0.99219,0.62761 v 16.39405 16.39406 l -0.72761,0.37999 c -1.30416,0.6811 -3.14308,2.68783 -3.92801,4.28647 -0.69284,1.41108 -0.76834,1.82535 -0.76834,4.21623 0,2.46282 0.0619,2.77706 0.86978,4.41818 1.0219,2.07577 3.03044,3.85154 5.34793,4.72817 2.08272,0.78782 5.36153,0.64049 7.45467,-0.33496 2.99784,-1.39706 4.93863,-3.95238 5.56662,-7.32923 0.61169,-3.28921 -0.60166,-6.47566 -3.42835,-9.00343 l -1.65515,-1.48013 -1.5e-4,-15.41198 c -8e-5,-8.47658 0.0902,-15.41198 0.20065,-15.41198 0.11044,0 2.68496,2.48627 5.72114,5.52504 l 5.52034,5.52504 -0.29327,1.68486 c -0.77676,4.46257 1.30393,8.56327 5.35138,10.54674 4.73715,2.32145 10.4758698,0.39551 12.9560798,-4.34809 0.78635,-1.50397 0.83833,-1.77562 0.83833,-4.3815 0,-2.54519 -0.0648,-2.90603 -0.77257,-4.30362 -0.9264,-1.82926 -3.09613,-3.95743 -4.8390498,-4.74637 -1.04112,-0.47127 -1.80254,-0.57954 -4.26236,-0.6061 l -2.99482,-0.0323 -6.17539,-6.18639 -6.1754,-6.18638 0.0365,-2.66159 c 0.0486,-3.53971 -0.56266,-5.14458 -2.83555,-7.44501 -2.21378,-2.2406 -3.84413,-2.86521 -7.34109,-2.81249 l -2.55138,0.0385 -6.5106,-6.50932 c -3.58084,-3.58012 -6.51061,-6.58632 -6.51061,-6.68045 0,-0.0941 2.53008,-2.69 5.6224,-5.76861 6.3364,-6.30834 7.26918,-6.9488 10.1203,-6.9488 3.30193,0 1.74595,-1.40198 31.6532998,28.5205 18.7619202,18.77142 27.3478402,27.53713 27.7780702,28.35975 0.51054,0.97618 0.62327,1.59569 0.62587,3.43958 0.003,1.97079 -0.0846,2.39622 -0.7067,3.43959 -0.40898,0.68594 -12.2969803,12.76117 -28.0458402,28.48755 -26.6491898,26.61115 -27.3720498,27.30742 -28.7730298,27.7151 -1.75732,0.51137 -3.17387,0.50654 -4.91291,-0.0168 z"
             id="path8890" />
          <g
             id="g13871"
             transform="translate(0,10.666528)">
            <text
               xml:space="preserve"
               style="font-size:22.4879px;line-height:4.25;font-family:'Open Sans';-inkscape-font-specification:'Open Sans';text-align:center;letter-spacing:0px;word-spacing:0px;text-anchor:middle;fill:#ffebcf;fill-opacity:1;stroke-width:0.264582"
               x="156.13281"
               y="-159.97966"
               id="text3581"><tspan
                 sodipodi:role="line"
                 id="tspan3579"
                 style="fill:#ffebcf;fill-opacity:1;stroke-width:0.264582"
                 x="156.1328"
                 y="-159.97966">REPOSITÓRIOS GIT BARE</tspan></text>
            <text
               xml:space="preserve"
               style="font-size:22.4879px;line-height:4.25;font-family:'Open Sans';-inkscape-font-specification:'Open Sans';text-align:center;letter-spacing:0px;word-spacing:0px;text-anchor:middle;fill:#ffebcf;fill-opacity:1;stroke-width:0.264582"
               x="139.41513"
               y="-182.46922"
               id="text11170"><tspan
                 sodipodi:role="line"
                 id="tspan11168"
                 style="fill:#ffebcf;fill-opacity:1;stroke-width:0.264582"
                 x="139.41513"
                 y="-182.46922">TRABALHANDO COM</tspan></text>
          </g>
        </g>
      </g>
    </g>
  </g>
</svg>
